Word,Frequency

(2011),1
(CPU),1
Access.,1
Computer,1
Emulation,1
For,1
Memory,1
Modern,1
Non-Uniform,1
Some,1
That,1
These,1
While,1
acts,1
affect,1
architects,1
architects,,1
architecture,1
architectures,1
battery,,1
be,1
bytes.,1
can,1
central,1
change,1
clock,1
cluster,1
code,1
collaborate,1
compiler,1
computer's,1
computers,1
computers.,1
computing,1
concerned,1
consumption,1
convenience,1
cycles:,1
design.,1
designers,1
easy,1
emulators,1
energy,1
estimates,1
example,,1
expense,1
fashionable,1
give,1
help,1
high,1
improvements,1
include,1
is,1
is,,1
it,1
its,1
joules,,1
largest,1
level,,1
life,1
measure,1
new,1
often,1
part:,1
physical,1
processing,1
programs,1
proposed,1
realistic,1
run,1
software,1
stage,,1
suggesting,1
they,1
this,1
time,1
unit,1
use,1
user,,1
uses,1
value,1
very,1
written,1
at,2
design,2
estimate,2
how,2
instruction,2
may,2
memory.,2
set.,2
size,2
with,2
to,3
a,4
computer,4
and,5
in,5
of,5
the,10
